Final project
…
ggsave("fig_D.png", fig_D, width = 5, height = 5)

Fig E

fig_E_data_gonad

# A tibble: 1,826 × 6
   `Shared in all samples` `Shared between five samples` Shared between four s…¹
   <chr>                   <chr>                         <chr>                  
 1 Y50D4B.4                ath-1                         pps-1                  
 2 prdx-2                  itsn-1                        Y105E8A.25             
 3 M02H5.8                 rga-4                         F59E12.17              
 4 ccar-1                  imb-2                         F22G12.5               
 5 dhs-11                  vab-10                        pqn-80                 
 6 fipp-1                  ampd-1                        Y55F3BR.6              
 7 spat-2                  twnk-1                        ubc-15                 
 8 unc-108                 C13B4.1                       acl-14                 
 9 rbm-26                  Y71F9AL.12                    tag-335                
10 F53G2.12                mvk-1                         lsy-13                 
# ℹ 1,816 more rows
# ℹ abbreviated name: ¹​`Shared between four samples`
# ℹ 3 more variables: `Shared between three samples` <chr>,
#   `Shared between two samples` <chr>, `Found in one sample only` <chr>
…
combined_data

# A tibble: 868 × 5
   Abundance Ratio (log2): (W…¹ Abundance Ratio P-Va…² `Gene name` tissue log10p
                          <dbl>                  <dbl> <chr>       <chr>   <dbl>
 1                        -6.64                  1e-17 ifb-2       gonad      17
 2                        -6.64                  1e-17 nep-17      gonad      17
 3                        -6.64                  1e-17 T25C12.3    gonad      17
 4                        -6.64                  1e-17 ctsa-2      gonad      17
 5                        -6.64                  1e-17 ifc-2       gonad      17
 6                        -6.64                  1e-17 irg-8       gonad      17
 7                        -6.64                  1e-17 hpo-34      gonad      17
 8                        -6.64                  1e-17 F28B4.3     gonad      17
 9                        -6.64                  1e-17 C18B2.5     gonad      17
10                        -6.64                  1e-17 vha-6       gonad      17
# ℹ 858 more rows
# ℹ abbreviated names: ¹​`Abundance Ratio (log2): (WT-Ix1) / (WT-Gx1)`,
#   ²​`Abundance Ratio P-Value: (WT-Ix1) / (WT-Gx1)`

combined_data |> 
  filter(`Abundance Ratio (log2): (WT-Ix1) / (WT-Gx1)` > 6) |> arrange()

# A tibble: 288 × 5
   Abundance Ratio (log2): (W…¹ Abundance Ratio P-Va…² `Gene name` tissue log10p
                          <dbl>                  <dbl> <chr>       <chr>   <dbl>
 1                         6.64                  1e-17 ifb-2       intes…     17
 2                         6.64                  1e-17 nep-17      intes…     17
 3                         6.64                  1e-17 T25C12.3    intes…     17
 4                         6.64                  1e-17 ctsa-2      intes…     17
 5                         6.64                  1e-17 ifc-2       intes…     17
 6                         6.64                  1e-17 irg-8       intes…     17
 7                         6.64                  1e-17 hpo-34      intes…     17
 8                         6.64                  1e-17 F28B4.3     intes…     17
 9                         6.64                  1e-17 C18B2.5     intes…     17
10                         6.64                  1e-17 vha-6       intes…     17
# ℹ 278 more rows
# ℹ abbreviated names: ¹​`Abundance Ratio (log2): (WT-Ix1) / (WT-Gx1)`,
#   ²​`Abundance Ratio P-Value: (WT-Ix1) / (WT-Gx1)`
…
